src/waveform.vcd
$date
	Sun Jul 13 20:42:16 2025
$end
$version
	Icarus Verilog
$end
$timescale
	1ps
$end
$scope module testbench $end
$var wire 4 ! state [3:0] $end
$var wire 8 " catode [7:0] $end
$var wire 4 # anode [3:0] $end
$var reg 1 $ clk $end
$var reg 1 % reset $end
$scope module dut $end
$var wire 1 $ clk $end
$var wire 1 % reset $end
$var wire 4 & state [3:0] $end
$var wire 8 ' catode [7:0] $end
$var wire 4 ( anode [3:0] $end
$var wire 32 ) WriteData [31:0] $end
$var wire 1 * RegWrite $end
$var wire 32 + RegDisplay [31:0] $end
$var wire 32 , ReadData [31:0] $end
$var wire 4 - Rd [3:0] $end
$var wire 1 . MemWrite $end
$var wire 32 / Adr [31:0] $end
$var reg 16 0 DisplayData [15:0] $end
$scope module arm $end
$var wire 32 1 RegDisplay [31:0] $end
$var wire 1 $ clk $end
$var wire 1 % reset $end
$var wire 4 2 state [3:0] $end
$var wire 1 3 longFlag $end
$var wire 1 4 isMul $end
$var wire 32 5 WriteData [31:0] $end
$var wire 2 6 ResultSrc [1:0] $end
$var wire 1 * RegWrite $end
$var wire 2 7 RegSrc [1:0] $end
$var wire 32 8 ReadData [31:0] $end
$var wire 4 9 Rd [3:0] $end
$var wire 1 : PCWrite $end
$var wire 1 . MemWrite $end
$var wire 32 ; Instr [31:0] $end
$var wire 2 < ImmSrc [1:0] $end
$var wire 1 = IRWrite $end
$var wire 1 > AdrSrc $end
$var wire 32 ? Adr [31:0] $end
$var wire 2 @ ALUSrcB [1:0] $end
$var wire 2 A ALUSrcA [1:0] $end
$var wire 4 B ALUFlags [3:0] $end
$var wire 4 C ALUControl [3:0] $end
$scope module c $end
$var wire 28 D Instr [31:4] $end
$var wire 1 $ clk $end
$var wire 1 % reset $end
$var wire 4 E state [3:0] $end
$var wire 1 3 longFlag $end
$var wire 1 4 isMul $end
$var wire 2 F ResultSrc [1:0] $end
$var wire 1 * RegWrite $end
$var wire 1 G RegW $end
$var wire 2 H RegSrc [1:0] $end
$var wire 4 I Rd [3:0] $end
$var wire 1 : PCWrite $end
$var wire 1 J PCS $end
$var wire 1 K NextPC $end
$var wire 1 . MemWrite $end
$var wire 1 L MemW $end
$var wire 2 M ImmSrc [1:0] $end
$var wire 1 = IRWrite $end
$var wire 2 N FlagW [1:0] $end
$var wire 1 > AdrSrc $end
$var wire 2 O ALUSrcB [1:0] $end
$var wire 2 P ALUSrcA [1:0] $end
$var wire 4 Q ALUFlags [3:0] $end
$var wire 4 R ALUControl [3:0] $end
$scope module cl $end
$var wire 4 S Cond [3:0] $end
$var wire 2 T FlagWrite [1:0] $end
$var wire 1 . MemWrite $end
$var wire 1 : PCWrite $end
$var wire 1 * RegWrite $end
$var wire 1 $ clk $end
$var wire 1 % reset $end
$var wire 1 G RegW $end
$var wire 1 J PCS $end
$var wire 1 K NextPC $end
$var wire 1 L MemW $end
$var wire 4 U Flags [3:0] $end
$var wire 2 V FlagW [1:0] $end
$var wire 1 W CondExFl $end
$var wire 1 X CondEx $end
$var wire 4 Y ALUFlags [3:0] $end
$scope module aluflags1reg $end
$var wire 1 $ clk $end
$var wire 2 Z d [1:0] $end
$var wire 1 [ en $end
$var wire 1 % reset $end
$var parameter 32 \ WIDTH $end
$var reg 2 ] q [1:0] $end
$upscope $end
$scope module aluflags2reg $end
$var wire 1 $ clk $end
$var wire 2 ^ d [1:0] $end
$var wire 1 _ en $end
$var wire 1 % reset $end
$var parameter 32 ` WIDTH $end
$var reg 2 a q [1:0] $end
$upscope $end
$scope module cc $end
$var wire 4 b Cond [3:0] $end
$var wire 4 c Flags [3:0] $end
$var reg 1 X CondEx $end
$upscope $end
$scope module condexreg $end
$var wire 1 $ clk $end
$var wire 1 X d $end
$var wire 1 % reset $end
$var parameter 32 d WIDTH $end
$var reg 1 W q $end
$upscope $end
$upscope $end
$scope module dec $end
$var wire 6 e Funct [5:0] $end
$var wire 2 f ImmSrc [1:0] $end
$var wire 4 g Mul [3:0] $end
$var wire 2 h Op [1:0] $end
$var wire 1 J PCS $end
$var wire 1 $ clk $end
$var wire 1 4 isMul $end
$var wire 1 % reset $end
$var wire 4 i state [3:0] $end
$var wire 1 3 longFlag $end
$var wire 2 j ResultSrc [1:0] $end
$var wire 1 G RegW $end
$var wire 2 k RegSrc [1:0] $end
$var wire 4 l Rd [3:0] $end
$var wire 1 K NextPC $end
$var wire 1 L MemW $end
$var wire 1 = IRWrite $end
$var wire 1 m Branch $end
$var wire 1 > AdrSrc $end
$var wire 2 n ALUSrcB [1:0] $end
$var wire 2 o ALUSrcA [1:0] $end
$var wire 1 p ALUOp $end
$var reg 4 q ALUControl [3:0] $end
$var reg 2 r FlagW [1:0] $end
$scope module fsm $end
$var wire 6 s Funct [5:0] $end
$var wire 2 t Op [1:0] $end
$var wire 1 $ clk $end
$var wire 1 4 isMul $end
$var wire 1 % reset $end
$var wire 1 3 longFlag $end
$var wire 2 u ResultSrc [1:0] $end
$var wire 1 G RegW $end
$var wire 1 K NextPC $end
$var wire 1 L MemW $end
$var wire 1 = IRWrite $end
$var wire 1 m Branch $end
$var wire 1 > AdrSrc $end
$var wire 2 v ALUSrcB [1:0] $end
$var wire 2 w ALUSrcA [1:0] $end
$var wire 1 p ALUOp $end
$var parameter 4 x ALUWB $end
$var parameter 4 y ALUWB2 $end
$var parameter 4 z BRANCH $end
$var parameter 4 { DECODE $end
$var parameter 4 | EXECUTEI $end
$var parameter 4 } EXECUTER $end
$var parameter 4 ~ FETCH $end
$var parameter 4 !" MEMADR $end
$var parameter 4 "" MEMRD $end
$var parameter 4 #" MEMWB $end
$var parameter 4 $" MEMWR $end
$var parameter 4 %" UNKNOWN $end
$var reg 14 &" controls [13:0] $end
$var reg 4 '" nextstate [3:0] $end
$var reg 4 (" state [3:0] $end
$upscope $end
$upscope $end
$upscope $end
$scope module dp $end
$var wire 4 )" ALUControl [3:0] $end
$var wire 2 *" ALUSrcA [1:0] $end
$var wire 2 +" ALUSrcB [1:0] $end
$var wire 1 > AdrSrc $end
$var wire 1 = IRWrite $end
$var wire 2 ," ImmSrc [1:0] $end
$var wire 32 -" PCNext [31:0] $end
$var wire 1 : PCWrite $end
$var wire 2 ." RegSrc [1:0] $end
$var wire 1 * RegWrite $end
$var wire 2 /" ResultSrc [1:0] $end
$var wire 1 $ clk $end
$var wire 1 4 isMul $end
$var wire 1 3 longFlag $end
$var wire 1 % reset $end
$var wire 4 0" mRA2 [3:0] $end
$var wire 4 1" mRA1 [3:0] $end
$var wire 32 2" WriteData [31:0] $end
$var wire 32 3" SrcB [31:0] $end
$var wire 32 4" SrcA [31:0] $end
$var wire 32 5" Result [31:0] $end
$var wire 32 6" ReadData [31:0] $end
$var wire 4 7" Rd [3:0] $end
$var wire 32 8" RD2 [31:0] $end
$var wire 32 9" RD1 [31:0] $end
$var wire 4 :" RA2 [3:0] $end
$var wire 4 ;" RA1 [3:0] $end
$var wire 32 <" PC [31:0] $end
$var wire 32 =" Instr [31:0] $end
$var wire 32 >" ExtImm [31:0] $end
$var wire 32 ?" Data [31:0] $end
$var wire 32 @" Adr [31:0] $end
$var wire 32 A" ALUResult2 [31:0] $end
$var wire 32 B" ALUResult [31:0] $end
$var wire 32 C" ALUOut [31:0] $end
$var wire 4 D" ALUFlags [3:0] $end
$var wire 32 E" A [31:0] $end
$scope module a $end
$var wire 4 F" ALUControl [3:0] $end
$var wire 1 G" carry $end
$var wire 1 H" longFlag $end
$var wire 1 I" neg $end
$var wire 1 J" overflow $end
$var wire 1 K" zero $end
$var wire 33 L" sum [32:0] $end
$var wire 32 M" mul32_result [31:0] $end
$var wire 16 N" mul16_result [15:0] $end
$var wire 32 O" condinvb [31:0] $end
$var wire 32 P" b [31:0] $end
$var wire 32 Q" add32_result [31:0] $end
$var wire 16 R" add16_result [15:0] $end
$var wire 32 S" a [31:0] $end
$var wire 4 T" ALUFlags [3:0] $end
$var reg 32 U" Long [31:0] $end
$var reg 32 V" Result [31:0] $end
$scope module fpu_add16 $end
$var wire 16 W" a [15:0] $end
$var wire 16 X" b [15:0] $end
$var wire 1 Y" sign_b $end
$var wire 1 Z" sign_a $end
$var wire 10 [" mant_b [9:0] $end
$var wire 10 \" mant_a [9:0] $end
$var wire 5 ]" exp_b [4:0] $end
$var wire 5 ^" exp_a [4:0] $end
$var reg 5 _" exp_r [4:0] $end
$var reg 12 `" mant_a_ext [11:0] $end
$var reg 12 a" mant_b_ext [11:0] $end
$var reg 11 b" mant_r [10:0] $end
$var reg 13 c" mant_sum [12:0] $end
$var reg 16 d" result [15:0] $end
$var reg 1 e" sign_r $end
$var integer 32 f" shift [31:0] $end
$upscope $end
$scope module fpu_add32 $end
$var wire 1 g" sign_b $end
$var wire 1 h" sign_a $end
$var wire 23 i" mant_b [22:0] $end
$var wire 23 j" mant_a [22:0] $end
$var wire 8 k" exp_b [7:0] $end
$var wire 8 l" exp_a [7:0] $end
$var wire 32 m" b [31:0] $end
$var wire 32 n" a [31:0] $end
$var reg 8 o" exp_r [7:0] $end
$var reg 25 p" mant_a_ext [24:0] $end
$var reg 25 q" mant_b_ext [24:0] $end
$var reg 24 r" mant_r [23:0] $end
$var reg 26 s" mant_sum [25:0] $end
$var reg 32 t" result [31:0] $end
$var reg 1 u" sign_r $end
$var integer 32 v" shift [31:0] $end
$upscope $end
$scope module fpu_mul16 $end
$var wire 16 w" a [15:0] $end
$var wire 16 x" b [15:0] $end
$var wire 1 y" sign_b $end
$var wire 1 z" sign_a $end
$var wire 10 {" mant_b_in [9:0] $end
$var wire 10 |" mant_a_in [9:0] $end
$var wire 5 }" exp_b [4:0] $end
$var wire 5 ~" exp_a [4:0] $end
$var reg 6 !# exp_r [5:0] $end
$var reg 11 "# mant_a [10:0] $end
$var reg 11 ## mant_b [10:0] $end
$var reg 22 $# mant_mul [21:0] $end
$var reg 16 %# result [15:0] $end
$var reg 1 &# sign_r $end
$upscope $end
$scope module fpu_mul32 $end
$var wire 1 '# sign_b $end
$var wire 1 (# sign_a $end
$var wire 23 )# mant_b_in [22:0] $end
$var wire 23 *# mant_a_in [22:0] $end
$var wire 8 +# exp_b [7:0] $end
$var wire 8 ,# exp_a [7:0] $end
$var wire 32 -# b [31:0] $end
$var wire 32 .# a [31:0] $end
$var reg 9 /# exp_r [8:0] $end
$var reg 24 0# mant_a [23:0] $end
$var reg 24 1# mant_b [23:0] $end
$var reg 48 2# mant_mul [47:0] $end
$var reg 32 3# result [31:0] $end
$var reg 1 4# sign_r $end
$upscope $end
$upscope $end
$scope module adrmux $end
$var wire 32 5# d1 [31:0] $end
$var wire 1 > s $end
$var wire 32 6# y [31:0] $end
$var wire 32 7# d0 [31:0] $end
$var parameter 32 8# WIDTH $end
$upscope $end
$scope module alureg $end
$var wire 1 $ clk $end
$var wire 32 9# d0 [31:0] $end
$var wire 32 :# d1 [31:0] $end
$var wire 1 3 lf $end
$var wire 1 % reset $end
$var reg 32 ;# q [31:0] $end
$upscope $end
$scope module datareg $end
$var wire 1 $ clk $end
$var wire 1 % reset $end
$var wire 32 <# d [31:0] $end
$var parameter 32 =# WIDTH $end
$var reg 32 ># q [31:0] $end
$upscope $end
$scope module e $end
$var wire 2 ?# ImmSrc [1:0] $end
$var wire 24 @# Instr [23:0] $end
$var reg 32 A# ExtImm [31:0] $end
$upscope $end
$scope module instrreg $end
$var wire 1 $ clk $end
$var wire 1 = en $end
$var wire 1 % reset $end
$var wire 32 B# d [31:0] $end
$var parameter 32 C# WIDTH $end
$var reg 32 D# q [31:0] $end
$upscope $end
$scope module pcreg $end
$var wire 1 $ clk $end
$var wire 32 E# d [31:0] $end
$var wire 1 : en $end
$var wire 1 % reset $end
$var parameter 32 F# WIDTH $end
$var reg 32 G# q [31:0] $end
$upscope $end
$scope module ra1mux $end
$var wire 4 H# d0 [3:0] $end
$var wire 4 I# d1 [3:0] $end
$var wire 1 J# s $end
$var wire 4 K# y [3:0] $end
$var parameter 32 L# WIDTH $end
$upscope $end
$scope module ra2mux $end
$var wire 4 M# d0 [3:0] $end
$var wire 4 N# d1 [3:0] $end
$var wire 1 O# s $end
$var wire 4 P# y [3:0] $end
$var parameter 32 Q# WIDTH $end
$upscope $end
$scope module rdreg $end
$var wire 1 $ clk $end
$var wire 64 R# d [63:0] $end
$var wire 1 % reset $end
$var parameter 32 S# WIDTH $end
$var reg 64 T# q [63:0] $end
$upscope $end
$scope module resultmux $end
$var wire 32 U# d0 [31:0] $end
$var wire 32 V# d1 [31:0] $end
$var wire 32 W# d2 [31:0] $end
$var wire 2 X# s [1:0] $end
$var wire 32 Y# y [31:0] $end
$var parameter 32 Z# WIDTH $end
$upscope $end
$scope module rf $end
$var wire 4 [# a3 [3:0] $end
$var wire 4 \# a4 [3:0] $end
$var wire 1 $ clk $end
$var wire 32 ]# r15 [31:0] $end
$var wire 4 ^# ra1 [3:0] $end
$var wire 4 _# ra2 [3:0] $end
$var wire 32 `# wd3 [31:0] $end
$var wire 1 * we3 $end
$var wire 1 3 we4 $end
$var wire 32 a# rd2 [31:0] $end
$var wire 32 b# rd1 [31:0] $end
$upscope $end
$scope module srcamux $end
$var wire 32 c# d0 [31:0] $end
$var wire 32 d# d1 [31:0] $end
$var wire 1 e# s $end
$var wire 32 f# y [31:0] $end
$var parameter 32 g# WIDTH $end
$upscope $end
$scope module srcbmux $end
$var wire 32 h# d0 [31:0] $end
$var wire 32 i# d1 [31:0] $end
$var wire 32 j# d2 [31:0] $end
$var wire 2 k# s [1:0] $end
$var wire 32 l# y [31:0] $end
$var parameter 32 m# WIDTH $end
$upscope $end
$upscope $end
$upscope $end
$scope module hd $end
$var wire 1 $ clk $end
$var wire 16 n# data [15:0] $end
$var wire 1 % reset $end
$var wire 1 o# scl_clk $end
$var wire 4 p# digit [3:0] $end
$var wire 8 q# catode [7:0] $end
$var wire 4 r# anode [3:0] $end
$scope module decoder $end
$var wire 4 s# digit [3:0] $end
$var reg 8 t# catode [7:0] $end
$upscope $end
$scope module m $end
$var wire 16 u# data [15:0] $end
$var wire 1 % reset $end
$var wire 1 o# clk $end
$var reg 4 v# anode [3:0] $end
$var reg 4 w# digit [3:0] $end
$var reg 2 x# state [1:0] $end
$upscope $end
$scope module sc $end
$var wire 1 $ clk $end
$var wire 1 % reset $end
$var reg 24 y# counter [23:0] $end
$var reg 1 o# t $end
$upscope $end
$upscope $end
$scope module mem $end
$var wire 32 z# a [31:0] $end
$var wire 1 $ clk $end
$var wire 32 {# rd [31:0] $end
$var wire 32 |# wd [31:0] $end
$var wire 1 . we $end
$upscope $end
$upscope $end
$upscope $end
$enddefinitions $end
$comment Show the parameter values. $end
$dumpall
b100000 m#
b100000 g#
b100000 Z#
b1000000 S#
b100 Q#
b100 L#
b100000 F#
b100000 C#
b100000 =#
b100000 8#
b1011 %"
b101 $"
b100 #"
b11 ""
b10 !"
b0 ~
b110 }
b111 |
b1 {
b1010 z
b1001 y
b1000 x
b1 d
b10 `
b10 \
$end
#0
$dumpvars
b0 |#
b11100011101000001100000000000011 {#
b0 z#
b0 y#
b0 x#
b0 w#
b111 v#
b0 u#
b11 t#
b0 s#
b111 r#
b11 q#
b0 p#
0o#
b0 n#
b100 l#
b10 k#
b100 j#
b0 i#
b0 h#
b0 f#
1e#
b0 d#
b0 c#
bx b#
bx a#
b100 `#
b0 _#
b0 ^#
b100 ]#
b0 \#
b0 [#
b100 Y#
b10 X#
b100 W#
b0 V#
b0 U#
b0 T#
bx R#
b0 P#
0O#
b0 N#
b0 M#
b0 K#
0J#
b1111 I#
b0 H#
b0 G#
b100 E#
b0 D#
b11100011101000001100000000000011 B#
b0 A#
b0 @#
b0 ?#
b0 >#
b11100011101000001100000000000011 <#
b0 ;#
b0 :#
b100 9#
b0 7#
b0 6#
b100 5#
x4#
b0 3#
bx 2#
bx 1#
bx 0#
bx /#
b0 .#
b100 -#
b0 ,#
b0 +#
b0 *#
b100 )#
0(#
0'#
x&#
b0 %#
bx $#
bx ##
bx "#
bx !#
b0 ~"
b0 }"
b0 |"
b100 {"
0z"
0y"
b100 x"
b0 w"
bx v"
xu"
b100 t"
bx s"
bx r"
b0xxxxxxxxxxxxxxxxxxxxxxxx q"
bx p"
bx o"
b0 n"
b100 m"
b0 l"
b0 k"
b0 j"
b100 i"
0h"
0g"
bx f"
xe"
b100 d"
bx c"
bx b"
bx a"
bx `"
bx _"
b0 ^"
b0 ]"
b0 \"
b100 ["
0Z"
0Y"
b100 X"
b0 W"
b100 V"
b0 U"
b0 T"
b0 S"
b100 R"
b100 Q"
b100 P"
b100 O"
b0 N"
b0 M"
b100 L"
0K"
0J"
0I"
0H"
0G"
b0 F"
b0 E"
b0 D"
b0 C"
b100 B"
b0 A"
b0 @"
b0 ?"
b0 >"
b0 ="
b0 <"
b0 ;"
b0 :"
bx 9"
bx 8"
b0 7"
b11100011101000001100000000000011 6"
b100 5"
b0 4"
b100 3"
b0 2"
b0 1"
b0 0"
b10 /"
b0 ."
b100 -"
b0 ,"
b10 +"
b1 *"
b0 )"
b0 ("
b1 '"
b10001010011000 &"
b1 w
b10 v
b10 u
b0 t
b0 s
b0 r
b0 q
0p
b1 o
b10 n
0m
b0 l
b0 k
b10 j
b0 i
b0 h
b0 g
b0 f
b0 e
b0 c
b0 b
b0 a
0_
b0 ^
b0 ]
0[
b0 Z
b0 Y
0X
0W
b0 V
b0 U
b0 T
b0 S
b0 R
b0 Q
b1 P
b10 O
b0 N
b0 M
0L
1K
0J
b0 I
b0 H
0G
b10 F
b0 E
b0 D
b0 C
b0 B
b1 A
b10 @
b0 ?
0>
1=
b0 <
b0 ;
1:
b0 9
b11100011101000001100000000000011 8
b0 7
b10 6
b0 5
04
03
b0 2
bx 1
b0 0
b0 /
0.
b0 -
b11100011101000001100000000000011 ,
bx +
0*
b0 )
b111 (
b11 '
b0 &
1%
1$
b111 #
b11 "
b0 !
$end
#5000
0$
0%
#10000
b1011 #
b1011 (
b1011 r#
b1011 v#
b1 x#
0&#
b110001 !#
b10000 $#
b100 ##
b100 "#
b11 :"
b11 P#
b11 _#
1X
04#
b110000001 /#
b10000 2#
b100 1#
b100 0#
b1110110000000000000000000000000 Q"
b1110110000000000000000000000000 t"
b100000000000000000000000 r"
0u"
b100000000000000000000000 s"
b11101100 o"
b0 v"
b100 q"
b100 p"
b100 |"
b110010000000000 R"
b110010000000000 d"
b10000000000 b"
0e"
b10000000000 c"
b11001 _"
b0 f"
b100 a"
b100 `"
b100 \"
b1000 -"
b1000 5#
b1000 E#
b1000 5"
b1000 Y#
b1000 ]#
b1000 `#
0:
b11 >"
b11 A#
b11 i#
b1100 -
b1100 9
b1100 I
b1100 l
b1100 7"
b1100 [#
b11 0"
b11 M#
b111010 e
b111010 s
b1110 S
b1110 b
b100 *#
b100 j"
b100 w"
b100 W"
b1000 B"
b1000 V"
b1000 9#
b1000 W#
b11100000000010110000110010011100 ,
b11100000000010110000110010011100 8
b11100000000010110000110010011100 6"
b11100000000010110000110010011100 <#
b11100000000010110000110010011100 B#
b11100000000010110000110010011100 {#
0K
0=
bx )
bx 5
bx 2"
bx h#
bx |#
bx E"
bx c#
b1100 \#
b101000001100000000000011 @#
b1100 N#
b1110001110100000110000000000 D
b1000 L"
b100 4"
b100 S"
b100 n"
b100 .#
b100 f#
b100 /
b100 ?
b100 @"
b100 6#
b100 z#
b10011000 &"
b111 '"
1o#
b1 y#
b100 C"
b100 ;#
b100 U#
bx T#
b11100011101000001100000000000011 ?"
b11100011101000001100000000000011 >#
b11100011101000001100000000000011 V#
b11100011101000001100000000000011 ;
b11100011101000001100000000000011 ="
b11100011101000001100000000000011 D#
b100 <"
b100 7#
b100 G#
b100 d#
b1 !
b1 &
b1 2
b1 E
b1 i
b1 ("
1$
#15000
0$
#20000
xJ"
bx f"
bx `"
bx ^
bx N"
bx %#
x&#
bx !#
bx $#
b11 ##
bx "#
xz"
bx ~"
bx |"
xZ"
bx ^"
bx \"
b0xx B
b0xx Q
b0xx Y
b0xx D"
b0xx T"
xG"
bx M"
bx 3#
x4#
bx /#
bx 2#
b11 1#
bx 0#
b0xxxxxxxxxxxxxxxxxxxxxxx Q"
b0xxxxxxxxxxxxxxxxxxxxxxx t"
bx r"
bx v"
b11 q"
bx p"
b11 {"
b0xxxxxxxxxxx R"
b0xxxxxxxxxxx d"
bx b"
bx c"
b0 _"
b11 a"
b11 ["
bx *#
bx ,#
x(#
bx j"
bx l"
xh"
bx w"
bx W"
b11 )#
b11 i"
b11 x"
b11 X"
bx s"
b0 o"
b11111111111111111111111111111100 O"
bx 4"
bx S"
bx n"
bx .#
bx f#
b11 3"
b11 P"
b11 m"
b11 -#
b11 l#
b11 B"
b11 V"
b11 9#
b11 W#
bx L"
0e#
b1001 C
b1001 R
b1001 q
b1001 )"
b1001 F"
b0 6
b0 F
b0 j
b0 u
b0 /"
b0 X#
b0 A
b0 P
b0 o
b0 w
b0 *"
b1 @
b1 O
b1 n
b1 v
b1 +"
b1 k#
1p
b110 &"
b1000 '"
b111 !
b111 &
b111 2
b111 E
b111 i
b111 ("
1W
b11100000000010110000110010011100 ?"
b11100000000010110000110010011100 >#
b11100000000010110000110010011100 V#
b1000 C"
b1000 ;#
b1000 U#
b10 y#
1$
#25000
0$
#30000
bx ##
xI"
bx 1#
bx Q"
bx t"
xu"
bx o"
b0xxxxxxxxxxxxxxxxxxxxxxxx q"
xy"
bx }"
bx {"
bx R"
bx d"
xe"
bx _"
b0xxxxxxxxxxx a"
bx `"
xY"
bx ]"
bx ["
bx )#
bx +#
x'#
bx i"
bx k"
xg"
bx x"
bx X"
bx p"
bx Z
bx 3"
bx P"
bx m"
bx -#
bx l#
bx B
bx Q
bx Y
bx D"
bx T"
xK"
bx O"
bx B"
bx V"
bx 9#
bx W#
1*
b0 C
b0 R
b0 q
b0 )"
b0 F"
b11 -"
b11 5#
b11 E#
b11 5"
b11 Y#
b11 ]#
b11 `#
1G
b0 @
b0 O
b0 n
b0 v
b0 +"
b0 k#
0p
b10000000000 &"
b0 '"
b11 y#
b11 C"
b11 ;#
b11 U#
b1000 !
b1000 &
b1000 2
b1000 E
b1000 i
b1000 ("
1$
#35000
0$
#40000
0I"
b0 ^
b0 Z
0J"
b10000000000 b"
b10000000000 c"
b0 f"
b0 N"
b0 %#
0&#
b110001 !#
b10000 $#
b100 ##
b100 "#
0G"
b0 B
b0 Q
b0 Y
b0 D"
b0 T"
0K"
0z"
b0 ~"
b100 |"
0Z"
b0 ^"
b100 \"
b0 M"
b0 3#
04#
b110000001 /#
b10000 2#
b100 1#
b100 0#
b1110110000000000000000000000000 Q"
b1110110000000000000000000000000 t"
b100000000000000000000000 r"
0u"
b100000000000000000000000 s"
b11101100 o"
b0 v"
b100 q"
0y"
b0 }"
b100 {"
b110010000000000 R"
b110010000000000 d"
0e"
b11001 _"
b100 a"
b100 `"
0Y"
b0 ]"
b100 ["
b1000 B"
b1000 V"
b1000 9#
b1000 W#
b100 *#
b0 ,#
0(#
b100 j"
b0 l"
0h"
b100 w"
b100 W"
b100 )#
b0 +#
0'#
b100 i"
b0 k"
0g"
b100 x"
b100 X"
b1000 L"
b100 O"
b100 p"
b100 4"
b100 S"
b100 n"
b100 .#
b100 f#
b100 3"
b100 P"
b100 m"
b100 -#
b100 l#
1:
0*
1e#
1K
0G
1=
b10 6
b10 F
b10 j
b10 u
b10 /"
b10 X#
b1 A
b1 P
b1 o
b1 w
b1 *"
b10 @
b10 O
b10 n
b10 v
b10 +"
b10 k#
b1000 -"
b1000 5#
b1000 E#
b1000 5"
b1000 Y#
b1000 ]#
b1000 `#
b10001010011000 &"
b1 '"
b0 !
b0 &
b0 2
b0 E
b0 i
b0 ("
bx C"
bx ;#
bx U#
b100 y#
1$
#45000
0$
#50000
b11 9"
b11 b#
b1100000000000000000000000000000011 R#
b11 8"
b11 a#
b100000 $#
b1000 "#
b1100 :"
b1100 P#
b1100 _#
b1100 ;"
b1100 K#
b1100 ^#
14
b100000 2#
b1000 0#
b1110110010000000000000000000000 Q"
b1110110010000000000000000000000 t"
b110000000000000000000000 r"
b1000 p"
b1000 |"
b110011000000000 R"
b110011000000000 d"
b11000000000 b"
b11000000000 c"
b11001 _"
b1000 `"
b1000 \"
b1100 -"
b1100 5#
b1100 E#
b1100 5"
b1100 Y#
b1100 ]#
b1100 `#
0:
b10011100 >"
b10011100 A#
b10011100 i#
b1011 -
b1011 9
b1011 I
b1011 l
b1011 7"
b1011 [#
b1100 0"
b1100 M#
b1100 1"
b1100 H#
b0 e
b0 s
b1001 g
b1000 *#
b1000 j"
b1000 w"
b1000 W"
b1100 B"
b1100 V"
b1100 9#
b1100 W#
b110000000000000000000000 s"
b11101100 o"
b11100011101000001010000000000000 ,
b11100011101000001010000000000000 8
b11100011101000001010000000000000 6"
b11100011101000001010000000000000 <#
b11100011101000001010000000000000 B#
b11100011101000001010000000000000 {#
0K
0=
b0 \#
b10110000110010011100 @#
b0 N#
b1110000000001011000011001001 D
b1100 L"
b1000 4"
b1000 S"
b1000 n"
b1000 .#
b1000 f#
b1000 /
b1000 ?
b1000 @"
b1000 6#
b1000 z#
b10011000 &"
b110 '"
b101 y#
b1000 C"
b1000 ;#
b1000 U#
b11100000000010110000110010011100 ;
b11100000000010110000110010011100 ="
b11100000000010110000110010011100 D#
b1000 <"
b1000 7#
b1000 G#
b1000 d#
b1 !
b1 &
b1 2
b1 E
b1 i
b1 ("
1$
#55000
0$
#60000
b11 `"
b1001 $#
b11 ##
b11 "#
b11 |"
b11 \"
b1001 2#
b11 1#
b11 0#
b1110101110000000000000000000000 Q"
b1110101110000000000000000000000 t"
b11 q"
b11 p"
b11 {"
b110001000000000 R"
b110001000000000 d"
b11000000000 b"
b11000000000 c"
b11000 _"
b11 a"
b11 ["
b11 *#
b11 j"
b11 w"
b11 W"
b11 )#
b11 i"
b11 x"
b11 X"
b11 O"
b110000000000000000000000 s"
b11101011 o"
b110 L"
b11 4"
b11 S"
b11 n"
b11 .#
b11 f#
b11 3"
b11 P"
b11 m"
b11 -#
b11 l#
b1001 B"
b1001 V"
b1001 9#
b1001 W#
0e#
b100 C
b100 R
b100 q
b100 )"
b100 F"
b0 6
b0 F
b0 j
b0 u
b0 /"
b0 X#
b0 A
b0 P
b0 o
b0 w
b0 *"
b0 @
b0 O
b0 n
b0 v
b0 +"
b0 k#
1p
b10 &"
b1000 '"
b11 )
b11 5
b11 2"
b11 h#
b11 |#
b11 E"
b11 c#
b110 !
b110 &
b110 2
b110 E
b110 i
b110 ("
b11100011101000001010000000000000 ?"
b11100011101000001010000000000000 >#
b11100011101000001010000000000000 V#
b1100000000000000000000000000000011 T#
b1100 C"
b1100 ;#
b1100 U#
b110 y#
1$
#65000
0$
#70000
b110 B"
b110 V"
b110 9#
b110 W#
1*
b0 C
b0 R
b0 q
b0 )"
b0 F"
b1001 -"
b1001 5#
b1001 E#
b1001 5"
b1001 Y#
b1001 ]#
b1001 `#
1G
0p
b10000000000 &"
b0 '"
b111 y#
b1001 C"
b1001 ;#
b1001 U#
b1000 !
b1000 &
b1000 2
b1000 E
b1000 i
b1000 ("
1$
#75000
0$
#80000
b1000 `"
b100000 $#
b100 ##
b1000 "#
b1000 |"
b1000 \"
b100000 2#
b100 1#
b1000 0#
b1110110010000000000000000000000 Q"
b1110110010000000000000000000000 t"
b100 q"
b1000 p"
b100 {"
b110011000000000 R"
b110011000000000 d"
b11000000000 b"
b11000000000 c"
b11001 _"
b100 a"
b100 ["
b1000 *#
b1000 j"
b1000 w"
b1000 W"
b100 )#
b100 i"
b100 x"
b100 X"
b100 O"
b1100 B"
b1100 V"
b1100 9#
b1100 W#
b110000000000000000000000 s"
b11101100 o"
b1100 L"
b1000 4"
b1000 S"
b1000 n"
b1000 .#
b1000 f#
b100 3"
b100 P"
b100 m"
b100 -#
b100 l#
1:
0*
1e#
1K
0G
1=
b10 6
b10 F
b10 j
b10 u
b10 /"
b10 X#
b1 A
b1 P
b1 o
b1 w
b1 *"
b10 @
b10 O
b10 n
b10 v
b10 +"
b10 k#
b1100 -"
b1100 5#
b1100 E#
b1100 5"
b1100 Y#
b1100 ]#
b1100 `#
b11111111 "
b11111111 '
b11111111 q#
b11111111 t#
b10001010011000 &"
b1 '"
bx p#
bx s#
bx w#
b0 !
b0 &
b0 2
b0 E
b0 i
b0 ("
b110 C"
b110 ;#
b110 U#
b1000 y#
bx 0
bx n#
bx u#
b1001 +
b1001 1
1$
#85000
0$
